<?xml version="1.0" encoding="UTF-8" standalone="no"?>
<svg width="16px" height="17px" viewBox="0 0 16 17" version="1.1" xmlns="http://www.w3.org/2000/svg" xmlns:xlink="http://www.w3.org/1999/xlink" xmlns:sketch="http://www.bohemiancoding.com/sketch/ns">
    <title>Untitled 4</title>
    <description>Created with Sketch (http://www.bohemiancoding.com/sketch)</description>
    <defs></defs>
    <g id="Page-1" stroke="none" stroke-width="1" fill="none" fill-rule="evenodd" sketch:type="MSPage">
        <path d="M9.57328962,13.6686189 L6.40340984,13.6686189 C6.1812459,13.6686189 6.00113661,13.8386189 6.00113661,14.0483131 C6.00113661,14.2580485 6.1812459,14.4280485 6.40340984,14.4280485 L9.57328962,14.4280485 C9.79549727,14.4280485 9.97560656,14.2580485 9.97560656,14.0483131 C9.97560656,13.8386189 9.79549727,13.6686189 9.57328962,13.6686189 L9.57328962,13.6686189 Z M9.50093989,14.9328083 L6.47584699,14.9328083 C6.25368306,14.9328083 6.07357377,15.1028083 6.07357377,15.3125024 C6.07357377,15.5221966 6.25368306,15.6921553 6.47584699,15.6921553 L9.50098361,15.6921553 C9.72310383,15.6921553 9.90321311,15.5221966 9.90321311,15.3125024 C9.90321311,15.1028083 9.72310383,14.9328083 9.50093989,14.9328083 L9.50093989,14.9328083 Z M6.49652459,16.1793374 C7.2797377,16.8627209 7.36034973,17 7.67300546,17 L8.27519126,17 C8.58072131,17 8.65608743,16.8727888 9.48017486,16.1793374 L6.49652459,16.1793374 L6.49652459,16.1793374 Z M12.5677814,7.08177913 C12.5677814,9.6526165 10.2254426,11.093284 10.2254426,13.1220607 L5.75130055,13.1220607 C5.75130055,11.093284 3.40891803,9.6526165 3.40891803,7.08177913 C3.40891803,1.55661408 12.5677814,1.55100243 12.5677814,7.08177913 L12.5677814,7.08177913 Z M8.56791257,1.86141748 L7.47230601,1.86141748 L7.47230601,0 L8.56791257,0 L8.56791257,1.86141748 L8.56791257,1.86141748 Z M12.3301858,0.989053398 L11.364765,0.500097087 L10.400612,2.19609466 L11.3660328,2.68505097 L12.3301858,0.989053398 L12.3301858,0.989053398 Z M15.1320219,3.5502767 L14.4938142,2.70972573 L12.740765,3.89551699 L13.3790164,4.73606796 L15.1320219,3.5502767 L15.1320219,3.5502767 Z M15.3255082,10.0737791 L13.353224,9.31963107 L12.9418579,10.278068 L14.9141421,11.0322573 L15.3255082,10.0737791 L15.3255082,10.0737791 Z M15.9815519,6.41853155 L13.7465355,6.41853155 L13.7465355,7.4526432 L15.9815519,7.4526432 L15.9815519,6.41853155 L15.9815519,6.41853155 Z M5.58093989,2.19609466 L4.61678689,0.500097087 L3.65136612,0.989053398 L4.61551913,2.68505097 L5.58093989,2.19609466 L5.58093989,2.19609466 Z M3.24074317,3.89551699 L1.48769399,2.70972573 L0.849486339,3.5502767 L2.6024918,4.73606796 L3.24074317,3.89551699 L3.24074317,3.89551699 Z M3.05862295,10.1876214 L2.60935519,9.24449272 L0.637071038,10.0814126 L1.0863388,11.0245413 L3.05862295,10.1876214 L3.05862295,10.1876214 Z M2.23501639,6.41853155 L0,6.41853155 L0,7.4526432 L2.23501639,7.4526432 L2.23501639,6.41853155 L2.23501639,6.41853155 Z" id="light-bulb-17-icon" fill="#000000" sketch:type="MSShapeGroup"></path>
    </g>
</svg>