<?xml version="1.0" encoding="UTF-8" standalone="no"?>
<svg width="19px" height="17px" viewBox="0 0 19 17" version="1.1" xmlns="http://www.w3.org/2000/svg" xmlns:xlink="http://www.w3.org/1999/xlink" xmlns:sketch="http://www.bohemiancoding.com/sketch/ns">
    <title>Untitled 6</title>
    <description>Created with Sketch (http://www.bohemiancoding.com/sketch)</description>
    <defs></defs>
    <g id="Page-1" stroke="none" stroke-width="1" fill="none" fill-rule="evenodd" sketch:type="MSPage">
        <path d="M16.0967128,0.601760324 C13.1032628,-0.898072567 9.94546281,0.639322659 9.50266781,2.65122982 C9.05987281,0.639367751 5.90202531,-0.898027474 2.90862281,0.601760324 C-1.08137719,2.60086112 -2.64887719,9.68043672 9.50266781,16.9957126 C21.6542128,9.68043672 20.0867128,2.60086112 16.0967128,0.601760324 L16.0967128,0.601760324 Z" id="favorite-icon" fill="#000000" sketch:type="MSShapeGroup"></path>
    </g>
</svg>